Reproducible report: Resistance to tebuconazole and carbendazim in Fusarium graminearum population
…
Isolates

All isolates used in this study with their location were loaded to plotting the map below.

data_load <- gsheet2tbl("https://docs.google.com/spreadsheets/d/1JwJivEu1M6yb4tMcpXdWiWBSl8rroB8x/edit#gid=531845475") %>% 
  mutate(genotype = case_when(genotype == "XXX" ~ "Failed",
                              TRUE ~ genotype)) 

data_load

# A tibble: 227 × 9
      id code     location    year genotype state country   lon   lat
   <dbl> <chr>    <chr>      <dbl> <chr>    <chr> <chr>   <dbl> <dbl>
 1     1 UEM-2545 Turvo       2011 15ADON   PR    Brazil  -51.5 -25.0
 2     2 UEM-2546 Turvo       2011 15ADON   PR    Brazil  -51.5 -25.0
 3     3 UEM-2551 Guarapuava  2011 15ADON   PR    Brazil  -51.5 -25.4
 4     4 UEM-2553 Guarapuava  2011 15ADON   PR    Brazil  -51.5 -25.4
 5     5 UEM-2554 Guarapuava  2011 15ADON   PR    Brazil  -51.5 -25.4
 6     6 UEM-2555 Guarapuava  2011 15ADON   PR    Brazil  -51.5 -25.4
 7     7 UEM-2562 Goioxim     2011 15ADON   PR    Brazil  -52.0 -25.1
 8     8 UEM-2580 Guarapuava  2011 15ADON   PR    Brazil  -51.5 -25.4
 9     9 UEM-2628 Candói      2011 15ADON   PR    Brazil  -51.9 -25.5
10    10 UEM-2636 Guarapuava  2011 15ADON   PR    Brazil  -51.5 -25.4
# ℹ 217 more rows
…
Data

This database contains information about all mycelial growth tests conducted, divided by: experiment and geographic collection.

mycelial_assay<- gsheet2tbl("https://docs.google.com/spreadsheets/d/11N56uIawd82YdHDG9W7CnPWrO0oWnEGd/edit#gid=1544594798") %>%
  mutate(mycelial_growth = as.numeric(`cm-6`),
         dose = as.numeric(dose))
  # group_by(isolate, dose) %>%
  # dplyr::mutate(GC = as.numeric(GC)) %>%
  # dplyr::mutate(Dose = as.numeric(Dose))
  
mycelial_assay

# A tibble: 350 × 10
   isolate  dose    cm `cm-6`    inib reduct fungicide  year genotype
   <chr>   <dbl> <dbl>  <dbl>   <dbl>  <dbl> <chr>     <dbl> <chr>   
 1 2794      0    72.0   66.0   0      100   CARB       2011 15ADON  
 2 2794      0.5  56.8   50.8  23.0     77.0 CARB       2011 15ADON  
 3 2794      1    40.9   34.9  47.1     52.9 CARB       2011 15ADON  
 4 2794      2    19.9   13.9  79.0     21.0 CARB       2011 15ADON  
 5 2794      4     6      0   100        0   CARB       2011 15ADON  
 6 2832      0    75.4   69.4   0      100   CARB       2011 15ADON  
 7 2832      0.5  75.6   69.6  -0.364  100.  CARB       2011 15ADON  
 8 2832      1    49.8   43.8  36.8     63.2 CARB       2011 15ADON  
 9 2832      2    20.6   14.6  78.9     21.1 CARB       2011 15ADON  
10 2832      4     6      0   100        0   CARB       2011 15ADON  
# ℹ 340 more rows
# ℹ 1 more variable: mycelial_growth <dbl>
…
ggsave("figs/figure2.png", width = 8, height =5)

Correlation EC50

cor_ec50 <- ec %>% 
  dplyr::select(year,isolate, genotype, ec50) %>% 
  group_by(year, isolate, genotype) %>% 
  spread(fungicide, ec50) %>% 
  mutate(log_carb=log(CARB),
         log_teb=log(TEBU)) 
cor_ec50

# A tibble: 35 × 7
# Groups:   year, isolate, genotype [35]
    year isolate genotype  CARB   TEBU log_carb log_teb
   <dbl> <chr>   <chr>    <dbl>  <dbl>    <dbl>   <dbl>
 1  2011 2546    15ADON    1.38 0.531    0.325   -0.633
 2  2011 2551    15ADON    1.37 0.0552   0.313   -2.90 
 3  2011 2655    15ADON    1.56 0.645    0.448   -0.438
 4  2011 2662    15ADON    1.36 2.04     0.310    0.714
 5  2011 2702    15ADON    1.22 0.102    0.201   -2.28 
 6  2011 2727    15ADON    1.14 0.0681   0.127   -2.69 
 7  2011 2781    15ADON    1.30 0.293    0.266   -1.23 
 8  2011 2794    15ADON    1.02 0.0807   0.0225  -2.52 
 9  2011 2816    15ADON    1.31 1.90     0.274    0.641
10  2011 2832    15ADON    1.31 0.721    0.269   -0.327
# ℹ 25 more rows
…
